131072
131072
131072
131072
131072
131072
131072
131072
131072
131072
131072
131072
131072
131072
131072
131072
131072
131072
131072
131072
131072
131072
131072
131072
131072
131072
131072
131072
131072
131072
131072
131072
