link,src,count,dst[0],dst[1],dst[2]
722,72,64,337,,
814,337,64,331,,
962,134,64,338,,
985,338,64,331,,
843,331,32,332,,
548,258,1,333,,
568,258,1,335,,
587,258,1,333,335,332
912,332,1,258,,
749,333,32,72,,
637,333,32,72,,
768,335,32,134,,
658,335,32,134,,
