{
,
  "FringeDenseLoad187" :  {
    "tp" : "dfg",
    "stages" : 0,
    "hasReduce" : false,
    "cins" : 0,
    "sins" : 2,
    "vins" : 0,
    "couts" : 0,
    "souts" : 0,
    "vouts" : 1
  },
  "FringeDenseLoad378" :  {
    "tp" : "dfg",
    "stages" : 0,
    "hasReduce" : false,
    "cins" : 0,
    "sins" : 2,
    "vins" : 0,
    "couts" : 0,
    "souts" : 0,
    "vouts" : 1
  },
  "FringeDenseStore2681" :  {
    "tp" : "dfg",
    "stages" : 0,
    "hasReduce" : false,
    "cins" : 0,
    "sins" : 2,
    "vins" : 1,
    "couts" : 1,
    "souts" : 0,
    "vouts" : 0
  },
  "ArgFringe2693" :  {
    "tp" : "afg",
    "stages" : 0,
    "hasReduce" : false,
    "cins" : 1,
    "sins" : 0,
    "vins" : 0,
    "couts" : 1,
    "souts" : 5,
    "vouts" : 0
  },
  "CUContainer2809" :  {
    "tp" : "ocu",
    "stages" : 0,
    "hasReduce" : false,
    "cins" : 1,
    "sins" : 2,
    "vins" : 0,
    "couts" : 1,
    "souts" : 0,
    "vouts" : 0
  },
  "CUContainer2987" :  {
    "tp" : "pcu",
    "stages" : 3,
    "hasReduce" : false,
    "cins" : 0,
    "sins" : 2,
    "vins" : 2,
    "couts" : 0,
    "souts" : 0,
    "vouts" : 1
  },
  "CUContainer2988" :  {
    "tp" : "dag",
    "stages" : 5,
    "hasReduce" : false,
    "cins" : 0,
    "sins" : 3,
    "vins" : 0,
    "couts" : 0,
    "souts" : 2,
    "vouts" : 0
  },
  "CUContainer2992" :  {
    "tp" : "dag",
    "stages" : 5,
    "hasReduce" : false,
    "cins" : 0,
    "sins" : 3,
    "vins" : 0,
    "couts" : 0,
    "souts" : 2,
    "vouts" : 0
  },
  "CUContainer2993" :  {
    "tp" : "pcu",
    "stages" : 2,
    "hasReduce" : false,
    "cins" : 1,
    "sins" : 2,
    "vins" : 0,
    "couts" : 0,
    "souts" : 0,
    "vouts" : 1
  },
  "CUContainer2995" :  {
    "tp" : "scu",
    "stages" : 1,
    "hasReduce" : false,
    "cins" : 0,
    "sins" : 2,
    "vins" : 0,
    "couts" : 0,
    "souts" : 1,
    "vouts" : 0
  },
  "CUContainer2999" :  {
    "tp" : "dag",
    "stages" : 5,
    "hasReduce" : false,
    "cins" : 0,
    "sins" : 4,
    "vins" : 0,
    "couts" : 0,
    "souts" : 2,
    "vouts" : 0
  },
  "CUContainer3005" :  {
    "tp" : "ocu",
    "stages" : 0,
    "hasReduce" : false,
    "cins" : 0,
    "sins" : 1,
    "vins" : 0,
    "couts" : 0,
    "souts" : 1,
    "vouts" : 0
  },
  "CUContainer3006" :  {
    "tp" : "ocu",
    "stages" : 0,
    "hasReduce" : false,
    "cins" : 0,
    "sins" : 1,
    "vins" : 0,
    "couts" : 0,
    "souts" : 1,
    "vouts" : 0
  },
  "CUContainer3007" :  {
    "tp" : "ocu",
    "stages" : 0,
    "hasReduce" : false,
    "cins" : 0,
    "sins" : 1,
    "vins" : 0,
    "couts" : 0,
    "souts" : 1,
    "vouts" : 0
  },
  "CUContainer3008" :  {
    "tp" : "ocu",
    "stages" : 0,
    "hasReduce" : false,
    "cins" : 0,
    "sins" : 1,
    "vins" : 0,
    "couts" : 0,
    "souts" : 1,
    "vouts" : 0
  },
  "CUContainer3009" :  {
    "tp" : "ocu",
    "stages" : 0,
    "hasReduce" : false,
    "cins" : 0,
    "sins" : 1,
    "vins" : 0,
    "couts" : 0,
    "souts" : 1,
    "vouts" : 0
  },
  "CUContainer3010" :  {
    "tp" : "ocu",
    "stages" : 0,
    "hasReduce" : false,
    "cins" : 0,
    "sins" : 1,
    "vins" : 0,
    "couts" : 0,
    "souts" : 1,
    "vouts" : 0
  },
  "CUContainer3011" :  {
    "tp" : "ocu",
    "stages" : 0,
    "hasReduce" : false,
    "cins" : 0,
    "sins" : 1,
    "vins" : 0,
    "couts" : 0,
    "souts" : 1,
    "vouts" : 0
  },
  "CUContainer3012" :  {
    "tp" : "ocu",
    "stages" : 0,
    "hasReduce" : false,
    "cins" : 0,
    "sins" : 1,
    "vins" : 0,
    "couts" : 0,
    "souts" : 1,
    "vouts" : 0
  },
  "CUContainer3013" :  {
    "tp" : "ocu",
    "stages" : 0,
    "hasReduce" : false,
    "cins" : 0,
    "sins" : 1,
    "vins" : 0,
    "couts" : 0,
    "souts" : 1,
    "vouts" : 0
  },
  "CUContainer3014" :  {
    "tp" : "ocu",
    "stages" : 0,
    "hasReduce" : false,
    "cins" : 0,
    "sins" : 1,
    "vins" : 0,
    "couts" : 0,
    "souts" : 1,
    "vouts" : 0
  },
  "CUContainer3015" :  {
    "tp" : "ocu",
    "stages" : 0,
    "hasReduce" : false,
    "cins" : 0,
    "sins" : 1,
    "vins" : 0,
    "couts" : 0,
    "souts" : 1,
    "vouts" : 0
  },
  "CUContainer3016" :  {
    "tp" : "ocu",
    "stages" : 0,
    "hasReduce" : false,
    "cins" : 0,
    "sins" : 1,
    "vins" : 0,
    "couts" : 0,
    "souts" : 1,
    "vouts" : 0
  },
  "CUContainer3017" :  {
    "tp" : "ocu",
    "stages" : 0,
    "hasReduce" : false,
    "cins" : 0,
    "sins" : 1,
    "vins" : 0,
    "couts" : 0,
    "souts" : 1,
    "vouts" : 0
  },
  "CUContainer3018" :  {
    "tp" : "ocu",
    "stages" : 0,
    "hasReduce" : false,
    "cins" : 0,
    "sins" : 1,
    "vins" : 0,
    "couts" : 0,
    "souts" : 1,
    "vouts" : 0
  },
  "CUContainer3019" :  {
    "tp" : "ocu",
    "stages" : 0,
    "hasReduce" : false,
    "cins" : 0,
    "sins" : 1,
    "vins" : 0,
    "couts" : 0,
    "souts" : 1,
    "vouts" : 0
  },
  "CUContainer3020" :  {
    "tp" : "ocu",
    "stages" : 0,
    "hasReduce" : false,
    "cins" : 0,
    "sins" : 1,
    "vins" : 0,
    "couts" : 0,
    "souts" : 1,
    "vouts" : 0
  },
  "CUContainer3021" :  {
    "tp" : "pcu",
    "stages" : 1,
    "hasReduce" : false,
    "cins" : 0,
    "sins" : 1,
    "vins" : 1,
    "couts" : 0,
    "souts" : 0,
    "vouts" : 1
  },
  "CUContainer3022" :  {
    "tp" : "pcu",
    "stages" : 1,
    "hasReduce" : false,
    "cins" : 0,
    "sins" : 1,
    "vins" : 1,
    "couts" : 0,
    "souts" : 0,
    "vouts" : 1
  },
  "CUContainer3023" :  {
    "tp" : "pcu",
    "stages" : 1,
    "hasReduce" : false,
    "cins" : 0,
    "sins" : 1,
    "vins" : 1,
    "couts" : 0,
    "souts" : 0,
    "vouts" : 1
  },
  "CUContainer3024" :  {
    "tp" : "pcu",
    "stages" : 1,
    "hasReduce" : false,
    "cins" : 0,
    "sins" : 1,
    "vins" : 1,
    "couts" : 0,
    "souts" : 0,
    "vouts" : 1
  },
  "CUContainer3025" :  {
    "tp" : "pcu",
    "stages" : 1,
    "hasReduce" : false,
    "cins" : 0,
    "sins" : 1,
    "vins" : 1,
    "couts" : 0,
    "souts" : 0,
    "vouts" : 1
  },
  "CUContainer3026" :  {
    "tp" : "pcu",
    "stages" : 1,
    "hasReduce" : false,
    "cins" : 0,
    "sins" : 1,
    "vins" : 1,
    "couts" : 0,
    "souts" : 0,
    "vouts" : 1
  },
  "CUContainer3027" :  {
    "tp" : "pcu",
    "stages" : 1,
    "hasReduce" : false,
    "cins" : 0,
    "sins" : 1,
    "vins" : 1,
    "couts" : 0,
    "souts" : 0,
    "vouts" : 1
  },
  "CUContainer3028" :  {
    "tp" : "pcu",
    "stages" : 1,
    "hasReduce" : false,
    "cins" : 0,
    "sins" : 1,
    "vins" : 1,
    "couts" : 0,
    "souts" : 0,
    "vouts" : 1
  },
  "CUContainer3029" :  {
    "tp" : "pcu",
    "stages" : 1,
    "hasReduce" : false,
    "cins" : 0,
    "sins" : 1,
    "vins" : 1,
    "couts" : 0,
    "souts" : 0,
    "vouts" : 1
  },
  "CUContainer3030" :  {
    "tp" : "pcu",
    "stages" : 1,
    "hasReduce" : false,
    "cins" : 0,
    "sins" : 1,
    "vins" : 1,
    "couts" : 0,
    "souts" : 0,
    "vouts" : 1
  },
  "CUContainer3031" :  {
    "tp" : "pcu",
    "stages" : 1,
    "hasReduce" : false,
    "cins" : 0,
    "sins" : 1,
    "vins" : 1,
    "couts" : 0,
    "souts" : 0,
    "vouts" : 1
  },
  "CUContainer3032" :  {
    "tp" : "pcu",
    "stages" : 1,
    "hasReduce" : false,
    "cins" : 0,
    "sins" : 1,
    "vins" : 1,
    "couts" : 0,
    "souts" : 0,
    "vouts" : 1
  },
  "CUContainer3033" :  {
    "tp" : "pcu",
    "stages" : 1,
    "hasReduce" : false,
    "cins" : 0,
    "sins" : 1,
    "vins" : 1,
    "couts" : 0,
    "souts" : 0,
    "vouts" : 1
  },
  "CUContainer3034" :  {
    "tp" : "pcu",
    "stages" : 1,
    "hasReduce" : false,
    "cins" : 0,
    "sins" : 1,
    "vins" : 1,
    "couts" : 0,
    "souts" : 0,
    "vouts" : 1
  },
  "CUContainer3035" :  {
    "tp" : "pcu",
    "stages" : 1,
    "hasReduce" : false,
    "cins" : 0,
    "sins" : 1,
    "vins" : 1,
    "couts" : 0,
    "souts" : 0,
    "vouts" : 1
  },
  "CUContainer3036" :  {
    "tp" : "pcu",
    "stages" : 1,
    "hasReduce" : false,
    "cins" : 0,
    "sins" : 1,
    "vins" : 1,
    "couts" : 0,
    "souts" : 0,
    "vouts" : 1
  },
  "CUContainer3037" :  {
    "tp" : "pmu",
    "stages" : 4,
    "hasReduce" : false,
    "cins" : 0,
    "sins" : 2,
    "vins" : 1,
    "couts" : 0,
    "souts" : 0,
    "vouts" : 1
  },
  "CUContainer3038" :  {
    "tp" : "pmu",
    "stages" : 4,
    "hasReduce" : false,
    "cins" : 0,
    "sins" : 0,
    "vins" : 1,
    "couts" : 0,
    "souts" : 0,
    "vouts" : 1
  },
  "CUContainer3039" :  {
    "tp" : "pmu",
    "stages" : 4,
    "hasReduce" : false,
    "cins" : 0,
    "sins" : 0,
    "vins" : 1,
    "couts" : 0,
    "souts" : 0,
    "vouts" : 1
  },
  "CUContainer3040" :  {
    "tp" : "pmu",
    "stages" : 2,
    "hasReduce" : false,
    "cins" : 0,
    "sins" : 0,
    "vins" : 2,
    "couts" : 0,
    "souts" : 0,
    "vouts" : 1
  },
  "CUContainer3041" :  {
    "tp" : "pmu",
    "stages" : 2,
    "hasReduce" : false,
    "cins" : 0,
    "sins" : 0,
    "vins" : 2,
    "couts" : 0,
    "souts" : 0,
    "vouts" : 1
  },
  "CUContainer3042" :  {
    "tp" : "pmu",
    "stages" : 2,
    "hasReduce" : false,
    "cins" : 0,
    "sins" : 0,
    "vins" : 2,
    "couts" : 0,
    "souts" : 0,
    "vouts" : 1
  },
  "CUContainer3043" :  {
    "tp" : "pmu",
    "stages" : 2,
    "hasReduce" : false,
    "cins" : 0,
    "sins" : 0,
    "vins" : 2,
    "couts" : 0,
    "souts" : 0,
    "vouts" : 1
  },
  "CUContainer3044" :  {
    "tp" : "pmu",
    "stages" : 2,
    "hasReduce" : false,
    "cins" : 0,
    "sins" : 0,
    "vins" : 2,
    "couts" : 0,
    "souts" : 0,
    "vouts" : 1
  },
  "CUContainer3045" :  {
    "tp" : "pmu",
    "stages" : 2,
    "hasReduce" : false,
    "cins" : 0,
    "sins" : 0,
    "vins" : 2,
    "couts" : 0,
    "souts" : 0,
    "vouts" : 1
  },
  "CUContainer3046" :  {
    "tp" : "pmu",
    "stages" : 2,
    "hasReduce" : false,
    "cins" : 0,
    "sins" : 0,
    "vins" : 2,
    "couts" : 0,
    "souts" : 0,
    "vouts" : 1
  },
  "CUContainer3047" :  {
    "tp" : "pmu",
    "stages" : 2,
    "hasReduce" : false,
    "cins" : 0,
    "sins" : 0,
    "vins" : 2,
    "couts" : 0,
    "souts" : 0,
    "vouts" : 1
  },
  "CUContainer3048" :  {
    "tp" : "pmu",
    "stages" : 2,
    "hasReduce" : false,
    "cins" : 0,
    "sins" : 0,
    "vins" : 2,
    "couts" : 0,
    "souts" : 0,
    "vouts" : 1
  },
  "CUContainer3049" :  {
    "tp" : "pmu",
    "stages" : 2,
    "hasReduce" : false,
    "cins" : 0,
    "sins" : 0,
    "vins" : 2,
    "couts" : 0,
    "souts" : 0,
    "vouts" : 1
  },
  "CUContainer3050" :  {
    "tp" : "pmu",
    "stages" : 2,
    "hasReduce" : false,
    "cins" : 0,
    "sins" : 0,
    "vins" : 2,
    "couts" : 0,
    "souts" : 0,
    "vouts" : 1
  },
  "CUContainer3051" :  {
    "tp" : "pmu",
    "stages" : 2,
    "hasReduce" : false,
    "cins" : 0,
    "sins" : 0,
    "vins" : 2,
    "couts" : 0,
    "souts" : 0,
    "vouts" : 1
  },
  "CUContainer3052" :  {
    "tp" : "pmu",
    "stages" : 2,
    "hasReduce" : false,
    "cins" : 0,
    "sins" : 0,
    "vins" : 2,
    "couts" : 0,
    "souts" : 0,
    "vouts" : 1
  },
  "CUContainer3053" :  {
    "tp" : "pmu",
    "stages" : 2,
    "hasReduce" : false,
    "cins" : 0,
    "sins" : 0,
    "vins" : 2,
    "couts" : 0,
    "souts" : 0,
    "vouts" : 1
  },
  "CUContainer3054" :  {
    "tp" : "pmu",
    "stages" : 2,
    "hasReduce" : false,
    "cins" : 0,
    "sins" : 0,
    "vins" : 2,
    "couts" : 0,
    "souts" : 0,
    "vouts" : 1
  },
  "CUContainer3055" :  {
    "tp" : "pmu",
    "stages" : 2,
    "hasReduce" : false,
    "cins" : 0,
    "sins" : 0,
    "vins" : 2,
    "couts" : 0,
    "souts" : 0,
    "vouts" : 1
  },
  "CUContainer3056" :  {
    "tp" : "pmu",
    "stages" : 0,
    "hasReduce" : false,
    "cins" : 0,
    "sins" : 0,
    "vins" : 1,
    "couts" : 0,
    "souts" : 1,
    "vouts" : 0
  },
  "CUContainer3057" :  {
    "tp" : "pmu",
    "stages" : 0,
    "hasReduce" : false,
    "cins" : 0,
    "sins" : 0,
    "vins" : 1,
    "couts" : 0,
    "souts" : 0,
    "vouts" : 1
  },
  "CUContainer3058" :  {
    "tp" : "pmu",
    "stages" : 0,
    "hasReduce" : false,
    "cins" : 0,
    "sins" : 0,
    "vins" : 1,
    "couts" : 0,
    "souts" : 0,
    "vouts" : 1
  },
  "CUContainer3059" :  {
    "tp" : "pmu",
    "stages" : 0,
    "hasReduce" : false,
    "cins" : 0,
    "sins" : 0,
    "vins" : 1,
    "couts" : 0,
    "souts" : 0,
    "vouts" : 1
  },
  "CUContainer3060" :  {
    "tp" : "pmu",
    "stages" : 0,
    "hasReduce" : false,
    "cins" : 0,
    "sins" : 0,
    "vins" : 1,
    "couts" : 0,
    "souts" : 0,
    "vouts" : 1
  },
  "CUContainer3061" :  {
    "tp" : "pmu",
    "stages" : 0,
    "hasReduce" : false,
    "cins" : 0,
    "sins" : 0,
    "vins" : 1,
    "couts" : 0,
    "souts" : 0,
    "vouts" : 1
  },
  "CUContainer3062" :  {
    "tp" : "pmu",
    "stages" : 0,
    "hasReduce" : false,
    "cins" : 0,
    "sins" : 0,
    "vins" : 1,
    "couts" : 0,
    "souts" : 0,
    "vouts" : 1
  },
  "CUContainer3063" :  {
    "tp" : "pmu",
    "stages" : 0,
    "hasReduce" : false,
    "cins" : 0,
    "sins" : 0,
    "vins" : 1,
    "couts" : 0,
    "souts" : 0,
    "vouts" : 1
  },
  "CUContainer3064" :  {
    "tp" : "pmu",
    "stages" : 0,
    "hasReduce" : false,
    "cins" : 0,
    "sins" : 0,
    "vins" : 1,
    "couts" : 0,
    "souts" : 0,
    "vouts" : 1
  },
  "CUContainer3065" :  {
    "tp" : "pmu",
    "stages" : 0,
    "hasReduce" : false,
    "cins" : 0,
    "sins" : 0,
    "vins" : 1,
    "couts" : 0,
    "souts" : 0,
    "vouts" : 1
  },
  "CUContainer3066" :  {
    "tp" : "pmu",
    "stages" : 0,
    "hasReduce" : false,
    "cins" : 0,
    "sins" : 0,
    "vins" : 1,
    "couts" : 0,
    "souts" : 0,
    "vouts" : 1
  },
  "CUContainer3067" :  {
    "tp" : "pmu",
    "stages" : 0,
    "hasReduce" : false,
    "cins" : 0,
    "sins" : 0,
    "vins" : 1,
    "couts" : 0,
    "souts" : 0,
    "vouts" : 1
  },
  "CUContainer3068" :  {
    "tp" : "pmu",
    "stages" : 0,
    "hasReduce" : false,
    "cins" : 0,
    "sins" : 0,
    "vins" : 1,
    "couts" : 0,
    "souts" : 0,
    "vouts" : 1
  },
  "CUContainer3069" :  {
    "tp" : "pmu",
    "stages" : 0,
    "hasReduce" : false,
    "cins" : 0,
    "sins" : 0,
    "vins" : 1,
    "couts" : 0,
    "souts" : 0,
    "vouts" : 1
  },
  "CUContainer3070" :  {
    "tp" : "pmu",
    "stages" : 0,
    "hasReduce" : false,
    "cins" : 0,
    "sins" : 0,
    "vins" : 1,
    "couts" : 0,
    "souts" : 0,
    "vouts" : 1
  },
  "CUContainer3071" :  {
    "tp" : "pmu",
    "stages" : 0,
    "hasReduce" : false,
    "cins" : 0,
    "sins" : 0,
    "vins" : 1,
    "couts" : 0,
    "souts" : 0,
    "vouts" : 1
  },
  "CUContainer3072" :  {
    "tp" : "pmu",
    "stages" : 0,
    "hasReduce" : false,
    "cins" : 0,
    "sins" : 0,
    "vins" : 1,
    "couts" : 0,
    "souts" : 0,
    "vouts" : 1
  },
  "CUContainer3073" :  {
    "tp" : "pmu",
    "stages" : 0,
    "hasReduce" : false,
    "cins" : 0,
    "sins" : 0,
    "vins" : 1,
    "couts" : 0,
    "souts" : 0,
    "vouts" : 1
  },
  "CUContainer3074" :  {
    "tp" : "pmu",
    "stages" : 0,
    "hasReduce" : false,
    "cins" : 0,
    "sins" : 0,
    "vins" : 1,
    "couts" : 0,
    "souts" : 0,
    "vouts" : 1
  },
  "CUContainer7045" :  {
    "tp" : "pcu",
    "stages" : 3,
    "hasReduce" : false,
    "cins" : 0,
    "sins" : 0,
    "vins" : 4,
    "couts" : 0,
    "souts" : 0,
    "vouts" : 1
  },
  "CUContainer7049" :  {
    "tp" : "pcu",
    "stages" : 3,
    "hasReduce" : false,
    "cins" : 0,
    "sins" : 0,
    "vins" : 4,
    "couts" : 0,
    "souts" : 0,
    "vouts" : 1
  },
  "CUContainer7050" :  {
    "tp" : "pcu",
    "stages" : 5,
    "hasReduce" : false,
    "cins" : 0,
    "sins" : 0,
    "vins" : 4,
    "couts" : 0,
    "souts" : 0,
    "vouts" : 1
  },
  "CUContainer7051" :  {
    "tp" : "pcu",
    "stages" : 3,
    "hasReduce" : false,
    "cins" : 0,
    "sins" : 0,
    "vins" : 4,
    "couts" : 0,
    "souts" : 0,
    "vouts" : 1
  },
  "CUContainer7052" :  {
    "tp" : "pcu",
    "stages" : 1,
    "hasReduce" : false,
    "cins" : 0,
    "sins" : 0,
    "vins" : 2,
    "couts" : 0,
    "souts" : 0,
    "vouts" : 1
  },
  "CUContainer7053" :  {
    "tp" : "pcu",
    "stages" : 3,
    "hasReduce" : false,
    "cins" : 0,
    "sins" : 0,
    "vins" : 4,
    "couts" : 0,
    "souts" : 0,
    "vouts" : 1
  }
}